<?xml version="1.0" encoding="UTF-8"?>
<svg width="40px" height="40px" viewBox="0 0 40 40" version="1.1" xmlns="http://www.w3.org/2000/svg" xmlns:xlink="http://www.w3.org/1999/xlink">
    <!-- Generator: Sketch 48.1 (47250) - http://www.bohemiancoding.com/sketch -->
    <title>Page 1</title>
    <desc>Created with Sketch.</desc>
    <defs>
        <polygon id="path-1" points="0 0 39.999972 0 39.999972 30 0 30"></polygon>
    </defs>
    <g id="Page-1" stroke="none" stroke-width="1" fill="none" fill-rule="evenodd">
        <g>
            <g id="Group-3">
                <mask id="mask-2" fill="white">
                    <use xlink:href="#path-1"></use>
                </mask>
                <g id="Clip-2"></g>
                <path d="M33.8097,21 L10.4677,21 L8.9567,9 L36.6097,9 L33.8097,21 Z M39.6747,6.567 C39.3907,6.209 38.9577,6 38.4997,6 L8.5787,6 L7.9887,1.313 C7.8937,0.563 7.2557,0 6.4997,0 L1.4997,0 C0.6717,0 -0.0003,0.671 -0.0003,1.5 C-0.0003,2.329 0.6717,3 1.4997,3 L5.1767,3 L8.4117,28.687 C8.5057,29.438 9.1437,30 9.8997,30 L33.6027,30 C34.4307,30 35.1027,29.329 35.1027,28.5 C35.1027,27.671 34.4307,27 33.6027,27 L11.2227,27 L10.8447,24 L34.9997,24 C35.6967,24 36.3027,23.52 36.4607,22.841 L39.9607,7.841 C40.0647,7.395 39.9597,6.926 39.6747,6.567 Z" id="Fill-1" fill="#4A4A4A" mask="url(#mask-2)"></path>
            </g>
            <path d="M13.9999,37 C13.4489,37 12.9999,36.551 12.9999,36 C12.9999,35.449 13.4489,35 13.9999,35 C14.5509,35 14.9999,35.449 14.9999,36 C14.9999,36.551 14.5509,37 13.9999,37 M13.9999,32 C11.7939,32 9.9999,33.794 9.9999,36 C9.9999,38.206 11.7939,40 13.9999,40 C16.2059,40 17.9999,38.206 17.9999,36 C17.9999,33.794 16.2059,32 13.9999,32" id="Fill-4" fill="#4A4A4A"></path>
            <path d="M28.9999,37 C28.4489,37 27.9999,36.551 27.9999,36 C27.9999,35.449 28.4489,35 28.9999,35 C29.5509,35 29.9999,35.449 29.9999,36 C29.9999,36.551 29.5509,37 28.9999,37 M28.9999,32 C26.7939,32 24.9999,33.794 24.9999,36 C24.9999,38.206 26.7939,40 28.9999,40 C31.2059,40 32.9999,38.206 32.9999,36 C32.9999,33.794 31.2059,32 28.9999,32" id="Fill-6" fill="#4A4A4A"></path>
        </g>
    </g>
</svg>