<?xml version="1.0" encoding="UTF-8"?>
<svg width="35px" height="57px" viewBox="0 0 35 57" version="1.1" xmlns="http://www.w3.org/2000/svg" xmlns:xlink="http://www.w3.org/1999/xlink">
    <!-- Generator: Sketch 48.1 (47250) - http://www.bohemiancoding.com/sketch -->
    <title>Path</title>
    <desc>Created with Sketch.</desc>
    <defs></defs>
    <g id="Home-Tablet" stroke="none" stroke-width="1" fill="none" fill-rule="evenodd" transform="translate(-227.000000, -2127.000000)">
        <polygon id="Path" stroke="#000000" transform="translate(245.000000, 2155.500000) scale(1, -1) translate(-245.000000, -2155.500000) " points="228 2128 262 2155.6367 228.336348 2183"></polygon>
    </g>
</svg>